{
  "project_info": {
    "project_number": "792767576343",
    "firebase_url": "https://trasqu-faed9.firebaseio.com",
    "project_id": "trasqu-faed9",
    "storage_bucket": "trasqu-faed9.appspot.com"
  },
  "client": [
    {
      "client_info": {
        "mobilesdk_app_id": "1:792767576343:android:47fc6897644322d4",
        "android_client_info": {
          "package_name": "com.besoci.sausosyal.besoci"
        }
      },
      "oauth_client": [
        {
          "client_id": "792767576343-4sfjvter9kkflufd35ic9ep7eud9q011.apps.googleusercontent.com",
          "client_type": 1,
          "android_info": {
            "package_name": "com.besoci.sausosyal.besoci",
            "certificate_hash": "41ab9c9bbe24d2eee94744ee6d42cf075ca13616"
          }
        },
        {
          "client_id": "792767576343-qhiv4qbeafv8k15ubdqci7u93ervlrhg.apps.googleusercontent.com",
          "client_type": 3
        }
      ],
      "api_key": [
        {
          "current_key": "AIzaSyCWxbPhIp1wAdOLHcWB3osSedf3wwJeHDo"
        }
      ],
      "services": {
        "analytics_service": {
          "status": 1
        },
        "appinvite_service": {
          "status": 2,
          "other_platform_oauth_client": [
            {
              "client_id": "792767576343-qhiv4qbeafv8k15ubdqci7u93ervlrhg.apps.googleusercontent.com",
              "client_type": 3
            }
          ]
        },
        "ads_service": {
          "status": 2
        }
      }
    }
  ],
  "configuration_version": "1"
}